<?xml version="1.0" standalone="no"?>
<!DOCTYPE svg PUBLIC "-//W3C//DTD SVG 1.1//EN" "http://www.w3.org/Graphics/SVG/1.1/DTD/svg11.dtd">
<svg xmlns="http://www.w3.org/2000/svg">
<metadata>Copyright (C) 2016 by original authors @ fontello.com</metadata>
<defs>
<font id="icons" horiz-adv-x="1000" >
<font-face font-family="icons" font-weight="400" font-stretch="normal" units-per-em="1000" ascent="850" descent="-150" />
<missing-glyph horiz-adv-x="1000" />
<glyph glyph-name="checkbox" unicode="&#xe800;" d="M889 739v-778h-778v778h778m0 111h-778c-61 0-111-50-111-111v-778c0-61 50-111 111-111h778c61 0 111 50 111 111v778c0 61-50 111-111 111l0 0z" horiz-adv-x="1000" />

<glyph glyph-name="checkbox-checked" unicode="&#xe801;" d="M272 456l-78-78 250-250 556 555-78 78-478-478-172 173z m617-495h-778v778h556v111h-556c-61 0-111-50-111-111v-778c0-61 50-111 111-111h778c61 0 111 50 111 111v445h-111v-445z" horiz-adv-x="1000" />

<glyph glyph-name="radio" unicode="&#xe802;" d="M500 850c-275 0-500-225-500-500s225-500 500-500 500 225 500 500-225 500-500 500z m0-900c-220 0-400 180-400 400s180 400 400 400 400-180 400-400-180-400-400-400z" horiz-adv-x="1000" />

<glyph glyph-name="radio-checked" unicode="&#xe803;" d="M500 600c-140 0-250-110-250-250 0-140 110-250 250-250 140 0 250 110 250 250 0 140-110 250-250 250z m0 250c-275 0-500-225-500-500s225-500 500-500 500 225 500 500-225 500-500 500z m0-900c-220 0-400 180-400 400s180 400 400 400 400-180 400-400-180-400-400-400z" horiz-adv-x="1000" />

<glyph glyph-name="info-circled" unicode="&#xe804;" d="M571 82v89q0 8-5 13t-12 5h-54v286q0 8-5 13t-13 5h-178q-8 0-13-5t-5-13v-89q0-8 5-13t13-5h53v-179h-53q-8 0-13-5t-5-13v-89q0-8 5-13t13-5h250q7 0 12 5t5 13z m-71 500v89q0 8-5 13t-13 5h-107q-8 0-13-5t-5-13v-89q0-8 5-13t13-5h107q8 0 13 5t5 13z m357-232q0-117-57-215t-156-156-215-58-216 58-155 156-58 215 58 215 155 156 216 58 215-58 156-156 57-215z" horiz-adv-x="857.1" />

<glyph glyph-name="attention-circled" unicode="&#xe805;" d="M429 779q116 0 215-58t156-156 57-215-57-215-156-156-215-58-216 58-155 156-58 215 58 215 155 156 216 58z m71-696v106q0 8-5 13t-12 5h-107q-8 0-13-5t-6-13v-106q0-8 6-13t13-6h107q7 0 12 6t5 13z m-1 192l10 346q0 7-6 10-5 5-13 5h-123q-8 0-13-5-6-3-6-10l10-346q0-6 5-10t14-4h103q8 0 13 4t6 10z" horiz-adv-x="857.1" />

<glyph glyph-name="attention" unicode="&#xe806;" d="M571 83v106q0 8-5 13t-12 5h-108q-7 0-12-5t-5-13v-106q0-8 5-13t12-6h108q7 0 12 6t5 13z m-1 208l10 257q0 6-5 10-7 6-14 6h-122q-6 0-14-6-5-4-5-12l9-255q0-5 6-9t13-3h103q8 0 14 3t5 9z m-7 522l428-786q20-35-1-70-9-17-26-26t-35-10h-858q-18 0-35 10t-26 26q-21 35-1 70l429 786q9 17 26 27t36 10 36-10 27-27z" horiz-adv-x="1000" />

<glyph glyph-name="cancel-circled" unicode="&#xe807;" d="M641 224q0 14-10 25l-101 101 101 101q10 11 10 25 0 15-10 26l-51 50q-10 11-25 11-15 0-25-11l-101-101-101 101q-11 11-25 11-16 0-26-11l-50-50q-11-11-11-26 0-14 11-25l101-101-101-101q-11-11-11-25 0-15 11-26l50-50q10-11 26-11 14 0 25 11l101 101 101-101q10-11 25-11 15 0 25 11l51 50q10 11 10 26z m216 126q0-117-57-215t-156-156-215-58-216 58-155 156-58 215 58 215 155 156 216 58 215-58 156-156 57-215z" horiz-adv-x="857.1" />

<glyph glyph-name="cancel" unicode="&#xe808;" d="M0 90q0 36 26 62l195 195-195 196q-26 25-26 61t26 61 61 25 61-25l196-196 195 196q25 25 61 25t61-25 25-61-25-61l-195-196 195-195q25-26 25-62t-25-61q-25-25-61-25t-61 25l-195 195-196-195q-25-25-61-25t-61 25q-26 26-26 61z" horiz-adv-x="686.5" />

<glyph glyph-name="home" unicode="&#xe809;" d="M0 340q-2 16 21 37l381 351q23 22 57 22t56-22l381-351q23-21 20-37t-30-15h-91v-305q0-32-23-55t-55-23h-517q-32 0-55 23t-23 55v305h-92q-27 0-30 15z" horiz-adv-x="916.5" />

<glyph glyph-name="mail" unicode="&#xe80a;" d="M0 28v644q0 8 2 18l460-460q39-39 95-39 55 0 94 39l460 460q2-9 2-18v-644q0-37-26-62t-62-26h-937q-36 0-62 26t-26 62z m63 728q13 4 25 4h937q12 0 25-4l-463-463q-13-12-31-12t-30 12z" horiz-adv-x="1113.3" />

<glyph glyph-name="arr-left" unicode="&#xe80b;" d="M237 824c-7-15-63-127-125-249-61-123-111-224-111-225 0-1 47-95 104-210 57-114 113-226 124-249l21-41 25 0c14 0 26 0 26 1 0 0-34 69-144 289-57 115-104 209-104 210 0 1 33 67 149 301 55 109 99 198 99 198 0 1-12 1-26 1l-25 0-13-26z" horiz-adv-x="302" />

<glyph glyph-name="arr-right" unicode="&#xe80c;" d="M1 849c0 0 44-89 99-198 116-234 149-300 149-301 0-1-47-95-104-210-110-220-144-289-144-289 0-1 12-1 26-1l26 0 20 41c11 23 67 135 124 249 57 115 104 209 104 210 0 1-50 102-111 225-61 122-117 234-125 249l-12 26-26 0c-14 0-26 0-26-1z" horiz-adv-x="302" />

<glyph glyph-name="down-dir" unicode="&#xe80d;" d="M571 457q0-14-10-25l-250-250q-11-11-25-11t-25 11l-250 250q-11 11-11 25t11 25 25 11h500q14 0 25-11t10-25z" horiz-adv-x="571.4" />

<glyph glyph-name="up-dir" unicode="&#xe80e;" d="M571 171q0-14-10-25t-25-10h-500q-15 0-25 10t-11 25 11 26l250 250q10 10 25 10t25-10l250-250q10-11 10-26z" horiz-adv-x="571.4" />

<glyph glyph-name="right-dir" unicode="&#xe80f;" d="M321 350q0-14-10-25l-250-250q-11-11-25-11t-25 11-11 25v500q0 15 11 25t25 11 25-11l250-250q10-10 10-25z" horiz-adv-x="357.1" />

<glyph glyph-name="left-dir" unicode="&#xe810;" d="M357 600v-500q0-14-10-25t-26-11-25 11l-250 250q-10 11-10 25t10 25l250 250q11 11 25 11t26-11 10-25z" horiz-adv-x="357.1" />

<glyph glyph-name="menu" unicode="&#xf008;" d="M68 62q0-30 21-51t51-21h793q30 0 51 21t21 51-21 51-51 21h-793q-29 0-51-21t-21-51z m0 288q0-30 21-51t51-21h793q30 0 51 21t21 51-21 51-51 21h-793q-29 0-51-21t-21-51z m0 288q0-30 21-51t51-21h793q30 0 51 21t21 51-21 51-51 21h-793q-29 0-51-21t-21-51z" horiz-adv-x="1073.2" />

<glyph glyph-name="search" unicode="&#xf50d;" d="M11 375q-23 87 0 173t87 150q48 49 110 74t128 25q65 0 127-25t110-74q52-52 77-119t21-137-36-132q28-8 49-29l174-173q35-35 35-85t-35-85q-35-35-85-35t-85 35l-173 174q-22 20-30 49-70-35-149-35-66 0-128 25t-110 73q-64 64-87 151z m101 86q0-93 65-158 66-65 159-65 92 0 157 65t66 158-66 158q-66 66-157 66-92 0-159-66-65-65-65-158z" horiz-adv-x="892.6" />
</font>
</defs>
</svg>