{
  "name": "icons",
  "css_prefix_text": "icon-",
  "css_use_suffix": false,
  "hinting": true,
  "units_per_em": 1000,
  "ascent": 850,
  "glyphs": [
    {
      "uid": "aec47313ed60b45181173a798d5cf25b",
      "css": "checkbox",
      "code": 59392,
      "src": "custom_icons",
      "selected": true,
      "svg": {
        "path": "M888.9 111.1V888.9H111.1V111.1H888.9M888.9 0H111.1C50 0 0 50 0 111.1V888.9C0 950 50 1000 111.1 1000H888.9C950 1000 1000 950 1000 888.9V111.1C1000 50 950 0 888.9 0L888.9 0Z",
        "width": 1000
      },
      "search": [
        "checkbox"
      ]
    },
    {
      "uid": "e1c76be7f83e2f83ed8b1e6e449c709c",
      "css": "checkbox-checked",
      "code": 59393,
      "src": "custom_icons",
      "selected": true,
      "svg": {
        "path": "M272.2 394.4L194.4 472.2 444.4 722.2 1000 166.7 922.2 88.9 444.4 566.7 272.2 394.4ZM888.9 888.9H111.1V111.1H666.7V0H111.1C50 0 0 50 0 111.1V888.9C0 950 50 1000 111.1 1000H888.9C950 1000 1000 950 1000 888.9V444.4H888.9V888.9Z",
        "width": 1000
      },
      "search": [
        "checkbox-checked"
      ]
    },
    {
      "uid": "97c0ee2bff1fb25078ce15f4fe963944",
      "css": "radio",
      "code": 59394,
      "src": "custom_icons",
      "selected": true,
      "svg": {
        "path": "M500 0C225 0 0 225 0 500S225 1000 500 1000 1000 775 1000 500 775 0 500 0ZM500 900C280 900 100 720 100 500S280 100 500 100 900 280 900 500 720 900 500 900Z",
        "width": 1000
      },
      "search": [
        "radio"
      ]
    },
    {
      "uid": "453d845f85df02fbafca597181130dd3",
      "css": "radio-checked",
      "code": 59395,
      "src": "custom_icons",
      "selected": true,
      "svg": {
        "path": "M500 250C360 250 250 360 250 500 250 640 360 750 500 750 640 750 750 640 750 500 750 360 640 250 500 250ZM500 0C225 0 0 225 0 500S225 1000 500 1000 1000 775 1000 500 775 0 500 0ZM500 900C280 900 100 720 100 500S280 100 500 100 900 280 900 500 720 900 500 900Z",
        "width": 1000
      },
      "search": [
        "radio-checked"
      ]
    },
    {
      "uid": "e82cedfa1d5f15b00c5a81c9bd731ea2",
      "css": "info-circled",
      "code": 59396,
      "src": "fontawesome"
    },
    {
      "uid": "b035c28eba2b35c6ffe92aee8b0df507",
      "css": "attention-circled",
      "code": 59397,
      "src": "fontawesome"
    },
    {
      "uid": "c76b7947c957c9b78b11741173c8349b",
      "css": "attention",
      "code": 59398,
      "src": "fontawesome"
    },
    {
      "uid": "0f4cae16f34ae243a6144c18a003f2d8",
      "css": "cancel-circled",
      "code": 59399,
      "src": "fontawesome"
    },
    {
      "uid": "ec21fe3492bb04d9e29103c319556ed8",
      "css": "search",
      "code": 62733,
      "src": "mfglabs"
    },
    {
      "uid": "c55fdf978f617992b43ee7cbaa6ef87e",
      "css": "menu",
      "code": 61448,
      "src": "mfglabs"
    },
    {
      "uid": "06301c50d89b5d3e651bd07ebd6d7de7",
      "css": "cancel",
      "code": 59400,
      "src": "mfglabs"
    },
    {
      "uid": "018571e697f22ca41803de480e10ed10",
      "css": "home",
      "code": 59401,
      "src": "mfglabs"
    },
    {
      "uid": "a17986e457f3d85f26c9c240dfd6a4ba",
      "css": "mail",
      "code": 59402,
      "src": "mfglabs"
    },
    {
      "uid": "af974b4107f96e6e64a16c8c5e020076",
      "css": "arr-left",
      "code": 59403,
      "src": "custom_icons",
      "selected": true,
      "svg": {
        "path": "M236.6 26.3C229.5 40.7 173.5 152.8 112.3 275.5 51.1 398.1 1 499.2 1 500.1 1 501 47.7 595.3 104.8 709.6 161.9 824 217.8 936.1 229.1 958.7L249.5 1000 275.3 1000C289.4 1000 301 999.7 301 999.4 301 998.5 266.9 930 156.8 709.6 99.7 595.3 53 501.2 53 500.4 53 498.6 85.6 432.9 202.4 199.1 256.6 90.5 301 1.3 301 0.8 301 0.4 289.4 0 275.3 0L249.5 0 236.6 26.3Z",
        "width": 302
      },
      "search": [
        "arr-left-(2)"
      ]
    },
    {
      "uid": "29fe2da2a46c28a269af9c4f7a863943",
      "css": "arr-right",
      "code": 59404,
      "src": "custom_icons",
      "selected": true,
      "svg": {
        "path": "M1 0.8C1 1.3 45.4 90.5 99.6 199.1 216.4 432.9 249 498.6 249 500.4 249 501.2 202.3 595.3 145.2 709.6 35.1 930 1 998.5 1 999.4 1 999.7 12.6 1000 26.8 1000L52.5 1000 72.9 958.7C84.2 936.1 140.1 824 197.2 709.6 254.3 595.3 301 501 301 500.1 301 499.2 250.9 398.1 189.7 275.5 128.5 152.8 72.5 40.7 65.4 26.3L52.5 0 26.8 0C12.6 0 1 0.4 1 0.8Z",
        "width": 302
      },
      "search": [
        "arr-right-(2)"
      ]
    },
    {
      "uid": "2d6150442079cbda7df64522dc24f482",
      "css": "down-dir",
      "code": 59405,
      "src": "fontawesome"
    },
    {
      "uid": "80cd1022bd9ea151d554bec1fa05f2de",
      "css": "up-dir",
      "code": 59406,
      "src": "fontawesome"
    },
    {
      "uid": "fb1c799ffe5bf8fb7f8bcb647c8fe9e6",
      "css": "right-dir",
      "code": 59407,
      "src": "fontawesome"
    },
    {
      "uid": "9dc654095085167524602c9acc0c5570",
      "css": "left-dir",
      "code": 59408,
      "src": "fontawesome"
    }
  ]
}